%YAML 1.1
%TAG !u! tag:unity3d.com,2011:
--- !u!114 &11400000
MonoBehaviour:
  m_ObjectHideFlags: 0
  m_CorrespondingSourceObject: {fileID: 0}
  m_PrefabInstance: {fileID: 0}
  m_PrefabAsset: {fileID: 0}
  m_GameObject: {fileID: 0}
  m_Enabled: 1
  m_EditorHideFlags: 0
  m_Script: {fileID: 11500000, guid: 54b6efd8c60623948b9ffa828b443575, type: 3}
  m_Name: EnemySettings
  m_EditorClassIdentifier: 
  maxHealth: 10
  movementSettings:
    stopDistance: 8
    velocity: 2
    angularSpeed: 110
  attackSettings:
    shootInterval: 1
    shootForce: 10
    damage: 2
    accuracyRadius: 2
